{"current_page":1,"data":[{"id":1,"name":"voluptas ipsam","description":"Quisquam omnis doloremque rerum exercitationem neque ipsum qui eum optio harum aperiam voluptates in voluptatem vel repellendus quo.","visibility":0,"level_id":3,"creator_id":28,"created_at":"2022-02-18T16:52:42.000000Z","updated_at":"2022-02-18T16:52:42.000000Z","permissions":{"can_viewAny":true,"can_view":true,"can_update":false,"can_delete":false,"can_ask":true},"userCount":20,"questionsCount":50,"answersCount":50,"visibilityName":"Private"},{"id":2,"name":"nemo ut","description":"Quod magnam rerum enim est soluta nihil ut qui quia eaque consequatur consequatur veritatis nihil accusamus repellat maxime tenetur natus tempora ut animi dolorum nemo et deleniti.","visibility":0,"level_id":2,"creator_id":28,"created_at":"2022-02-18T16:52:42.000000Z","updated_at":"2022-02-18T16:52:42.000000Z","permissions":{"can_viewAny":true,"can_view":true,"can_update":false,"can_delete":false,"can_ask":true},"userCount":20,"questionsCount":50,"answersCount":50,"visibilityName":"Private"},{"id":3,"name":"nesciunt voluptatibus","description":"Nam autem ut omnis eius repellendus illo nisi dolor tenetur assumenda facere voluptatem labore odit cum sed aut aut hic aut alias exercitationem.","visibility":0,"level_id":3,"creator_id":11,"created_at":"2022-02-18T16:52:42.000000Z","updated_at":"2022-02-18T16:52:42.000000Z","permissions":{"can_viewAny":true,"can_view":false,"can_update":false,"can_delete":false,"can_ask":true},"userCount":20,"questionsCount":50,"answersCount":50,"visibilityName":"Private"},{"id":4,"name":"quaerat quas","description":"Dignissimos nobis fugit perferendis minus quis iusto in et alias qui perferendis occaecati esse laudantium ullam rem laboriosam.","visibility":0,"level_id":3,"creator_id":25,"created_at":"2022-02-18T16:52:42.000000Z","updated_at":"2022-02-18T16:52:42.000000Z","permissions":{"can_viewAny":true,"can_view":true,"can_update":false,"can_delete":false,"can_ask":true},"userCount":20,"questionsCount":50,"answersCount":50,"visibilityName":"Private"},{"id":5,"name":"quibusdam voluptatem","description":"Sunt eum quis tenetur minima assumenda quod ut incidunt repudiandae impedit voluptate est et aut quia aut vero voluptas pariatur.","visibility":0,"level_id":1,"creator_id":18,"created_at":"2022-02-18T16:52:42.000000Z","updated_at":"2022-02-18T16:52:42.000000Z","permissions":{"can_viewAny":true,"can_view":false,"can_update":false,"can_delete":false,"can_ask":true},"userCount":20,"questionsCount":50,"answersCount":50,"visibilityName":"Private"},{"id":6,"name":"et quo","description":"Eum nisi expedita magni voluptas dicta dolorem repudiandae occaecati nam officiis quibusdam similique maxime rerum ut consectetur laborum qui.","visibility":0,"level_id":3,"creator_id":4,"created_at":"2022-02-18T16:52:42.000000Z","updated_at":"2022-02-18T16:52:42.000000Z","permissions":{"can_viewAny":true,"can_view":true,"can_update":false,"can_delete":false,"can_ask":true},"userCount":20,"questionsCount":50,"answersCount":50,"visibilityName":"Private"},{"id":7,"name":"expedita aliquid","description":"Minima repellat dolorem voluptatibus ipsum non alias fuga nulla eaque inventore laudantium ut.","visibility":0,"level_id":4,"creator_id":29,"created_at":"2022-02-18T16:52:42.000000Z","updated_at":"2022-02-18T16:52:42.000000Z","permissions":{"can_viewAny":true,"can_view":false,"can_update":false,"can_delete":false,"can_ask":true},"userCount":19,"questionsCount":50,"answersCount":50,"visibilityName":"Private"},{"id":8,"name":"sequi voluptates","description":"Illo non tempore et dolor debitis non voluptatibus repellat minima sit qui cum ducimus odit et in voluptate aut rerum voluptatem sit ut.","visibility":0,"level_id":3,"creator_id":11,"created_at":"2022-02-18T16:52:42.000000Z","updated_at":"2022-02-18T16:52:42.000000Z","permissions":{"can_viewAny":true,"can_view":true,"can_update":false,"can_delete":false,"can_ask":true},"userCount":21,"questionsCount":50,"answersCount":50,"visibilityName":"Private"},{"id":9,"name":"molestiae consequatur","description":"Neque alias hic debitis aut aut laudantium ut qui est rerum debitis quasi labore quia qui et est odit quo omnis unde unde.","visibility":0,"level_id":3,"creator_id":5,"created_at":"2022-02-18T16:52:42.000000Z","updated_at":"2022-02-18T16:52:42.000000Z","permissions":{"can_viewAny":true,"can_view":true,"can_update":false,"can_delete":false,"can_ask":true},"userCount":19,"questionsCount":50,"answersCount":50,"visibilityName":"Private"},{"id":10,"name":"eius accusantium","description":"Est praesentium totam qui corporis quo ea odio eius aperiam voluptatem possimus tenetur.","visibility":0,"level_id":4,"creator_id":14,"created_at":"2022-02-18T16:52:42.000000Z","updated_at":"2022-02-18T16:52:42.000000Z","permissions":{"can_viewAny":true,"can_view":true,"can_update":false,"can_delete":false,"can_ask":true},"userCount":19,"questionsCount":50,"answersCount":50,"visibilityName":"Private"},{"id":11,"name":"consequuntur ullam","description":"Dolore eveniet repellendus aut explicabo rerum consequuntur qui velit minima sunt ut nobis voluptatum quo id corrupti rerum beatae dolorem distinctio.","visibility":0,"level_id":4,"creator_id":26,"created_at":"2022-02-18T16:52:42.000000Z","updated_at":"2022-02-18T16:52:42.000000Z","permissions":{"can_viewAny":true,"can_view":true,"can_update":false,"can_delete":false,"can_ask":true},"userCount":19,"questionsCount":50,"answersCount":50,"visibilityName":"Private"},{"id":12,"name":"molestias omnis","description":"Aut impedit culpa perspiciatis modi temporibus et quis voluptatum quia quis sit harum nulla autem sint dicta consectetur quas repellendus delectus et.","visibility":0,"level_id":4,"creator_id":5,"created_at":"2022-02-18T16:52:42.000000Z","updated_at":"2022-02-18T16:52:42.000000Z","permissions":{"can_viewAny":true,"can_view":false,"can_update":false,"can_delete":false,"can_ask":true},"userCount":21,"questionsCount":50,"answersCount":50,"visibilityName":"Private"},{"id":13,"name":"et et","description":"Consectetur dolorum unde dolor sunt similique quaerat et aliquam quia dolor vero sit molestiae eos.","visibility":0,"level_id":1,"creator_id":4,"created_at":"2022-02-18T16:52:42.000000Z","updated_at":"2022-02-18T16:52:42.000000Z","permissions":{"can_viewAny":true,"can_view":true,"can_update":false,"can_delete":false,"can_ask":true},"userCount":19,"questionsCount":50,"answersCount":50,"visibilityName":"Private"},{"id":14,"name":"autem facere","description":"Id rem architecto illo autem nostrum illo quos ratione amet numquam tempora suscipit at dignissimos quia.","visibility":0,"level_id":1,"creator_id":16,"created_at":"2022-02-18T16:52:42.000000Z","updated_at":"2022-02-18T16:52:42.000000Z","permissions":{"can_viewAny":true,"can_view":true,"can_update":false,"can_delete":false,"can_ask":true},"userCount":21,"questionsCount":50,"answersCount":50,"visibilityName":"Private"},{"id":15,"name":"molestiae tempore","description":"Est officiis non velit aliquam eos tempora odit quia qui quod maiores consequuntur nesciunt aut qui dolorum qui debitis dolores excepturi rem et.","visibility":0,"level_id":4,"creator_id":6,"created_at":"2022-02-18T16:52:42.000000Z","updated_at":"2022-02-18T16:52:42.000000Z","permissions":{"can_viewAny":true,"can_view":false,"can_update":false,"can_delete":false,"can_ask":true},"userCount":20,"questionsCount":50,"answersCount":50,"visibilityName":"Private"},{"id":16,"name":"iure quibusdam","description":"Et voluptatem culpa cumque cum dolore aut fuga dicta eos dolorem sint est accusantium dolor libero facere voluptatem provident veniam.","visibility":0,"level_id":4,"creator_id":12,"created_at":"2022-02-18T16:52:42.000000Z","updated_at":"2022-02-18T16:52:42.000000Z","permissions":{"can_viewAny":true,"can_view":true,"can_update":false,"can_delete":false,"can_ask":true},"userCount":20,"questionsCount":50,"answersCount":50,"visibilityName":"Private"},{"id":17,"name":"molestias laudantium","description":"Rerum quia voluptatem omnis voluptas totam dolorem nisi numquam perspiciatis excepturi et necessitatibus repellat molestias laudantium impedit nobis fuga rerum consequatur et earum voluptatum placeat quia.","visibility":0,"level_id":1,"creator_id":3,"created_at":"2022-02-18T16:52:42.000000Z","updated_at":"2022-02-18T16:52:42.000000Z","permissions":{"can_viewAny":true,"can_view":true,"can_update":false,"can_delete":false,"can_ask":true},"userCount":20,"questionsCount":50,"answersCount":50,"visibilityName":"Private"},{"id":18,"name":"ducimus numquam","description":"Dolorem qui eligendi aut magni quo sint totam voluptatum sapiente accusantium dolorem repellat dolor.","visibility":0,"level_id":1,"creator_id":10,"created_at":"2022-02-18T16:52:42.000000Z","updated_at":"2022-02-18T16:52:42.000000Z","permissions":{"can_viewAny":true,"can_view":false,"can_update":false,"can_delete":false,"can_ask":true},"userCount":19,"questionsCount":50,"answersCount":50,"visibilityName":"Private"},{"id":19,"name":"sequi aperiam","description":"Placeat et aut consequatur dolorem voluptatibus nihil earum quam aperiam quo consequuntur ipsa aut quos sit officiis repudiandae.","visibility":0,"level_id":3,"creator_id":8,"created_at":"2022-02-18T16:52:42.000000Z","updated_at":"2022-02-18T16:52:42.000000Z","permissions":{"can_viewAny":true,"can_view":true,"can_update":false,"can_delete":false,"can_ask":true},"userCount":19,"questionsCount":50,"answersCount":50,"visibilityName":"Private"},{"id":20,"name":"magni ratione","description":"Rerum dicta nihil earum explicabo ut qui nam similique inventore quia dolor et sapiente sunt laboriosam non officia omnis qui odit voluptatum doloribus consectetur aut voluptatum praesentium et.","visibility":0,"level_id":4,"creator_id":20,"created_at":"2022-02-18T16:52:42.000000Z","updated_at":"2022-02-18T16:52:42.000000Z","permissions":{"can_viewAny":true,"can_view":true,"can_update":false,"can_delete":false,"can_ask":true},"userCount":19,"questionsCount":50,"answersCount":50,"visibilityName":"Private"},{"id":21,"name":"et at","description":"Deserunt quae quo ut et molestiae et ex ea est neque tempora praesentium quia voluptatem pariatur aperiam ex maxime dolor distinctio.","visibility":0,"level_id":4,"creator_id":22,"created_at":"2022-02-18T16:52:42.000000Z","updated_at":"2022-02-18T16:52:42.000000Z","permissions":{"can_viewAny":true,"can_view":true,"can_update":false,"can_delete":false,"can_ask":true},"userCount":21,"questionsCount":50,"answersCount":50,"visibilityName":"Private"},{"id":22,"name":"officia iure","description":"Illo eius cupiditate et autem et ut iste aspernatur quasi ipsam et animi illo omnis repellat.","visibility":0,"level_id":2,"creator_id":7,"created_at":"2022-02-18T16:52:42.000000Z","updated_at":"2022-02-18T16:52:42.000000Z","permissions":{"can_viewAny":true,"can_view":false,"can_update":false,"can_delete":false,"can_ask":true},"userCount":20,"questionsCount":50,"answersCount":50,"visibilityName":"Private"},{"id":23,"name":"aut eveniet","description":"Rerum et molestias nisi quia et iste facere debitis recusandae atque et nisi fugiat vel et nihil est.","visibility":0,"level_id":2,"creator_id":13,"created_at":"2022-02-18T16:52:42.000000Z","updated_at":"2022-02-18T16:52:42.000000Z","permissions":{"can_viewAny":true,"can_view":true,"can_update":false,"can_delete":false,"can_ask":true},"userCount":21,"questionsCount":50,"answersCount":50,"visibilityName":"Private"},{"id":24,"name":"sint quis","description":"Quod voluptas quibusdam est et id provident atque numquam fugit iure ipsum natus odio nihil voluptas et ut consequatur eius quia ducimus autem dolorum.","visibility":0,"level_id":1,"creator_id":8,"created_at":"2022-02-18T16:52:42.000000Z","updated_at":"2022-02-18T16:52:42.000000Z","permissions":{"can_viewAny":true,"can_view":false,"can_update":false,"can_delete":false,"can_ask":true},"userCount":19,"questionsCount":50,"answersCount":50,"visibilityName":"Private"},{"id":25,"name":"ducimus veritatis","description":"Amet doloremque quisquam repudiandae iste magnam dolorem deserunt qui hic libero eveniet quod et quos nulla qui et provident debitis facere harum laudantium.","visibility":0,"level_id":4,"creator_id":23,"created_at":"2022-02-18T16:52:42.000000Z","updated_at":"2022-02-18T16:52:42.000000Z","permissions":{"can_viewAny":true,"can_view":true,"can_update":false,"can_delete":false,"can_ask":true},"userCount":19,"questionsCount":50,"answersCount":50,"visibilityName":"Private"},{"id":26,"name":"eligendi a","description":"Illo sint corporis qui quia odio et rerum dignissimos facere adipisci explicabo blanditiis quod.","visibility":0,"level_id":1,"creator_id":28,"created_at":"2022-02-18T16:52:42.000000Z","updated_at":"2022-02-18T16:52:42.000000Z","permissions":{"can_viewAny":true,"can_view":true,"can_update":false,"can_delete":false,"can_ask":true},"userCount":19,"questionsCount":50,"answersCount":50,"visibilityName":"Private"},{"id":27,"name":"mollitia sit","description":"Impedit perferendis et voluptatem a est numquam ab aut dolor quia non in eaque dolore.","visibility":0,"level_id":4,"creator_id":26,"created_at":"2022-02-18T16:52:42.000000Z","updated_at":"2022-02-18T16:52:42.000000Z","permissions":{"can_viewAny":true,"can_view":true,"can_update":false,"can_delete":false,"can_ask":true},"userCount":20,"questionsCount":50,"answersCount":50,"visibilityName":"Private"},{"id":28,"name":"alias accusamus","description":"Ea rerum aut qui dolor voluptate ut occaecati voluptate qui sunt praesentium aliquam repellendus et voluptatem aut et saepe non odio molestiae est ipsam illum.","visibility":0,"level_id":2,"creator_id":5,"created_at":"2022-02-18T16:52:42.000000Z","updated_at":"2022-02-18T16:52:42.000000Z","permissions":{"can_viewAny":true,"can_view":true,"can_update":false,"can_delete":false,"can_ask":true},"userCount":19,"questionsCount":50,"answersCount":50,"visibilityName":"Private"},{"id":29,"name":"dignissimos magni","description":"Laudantium sit quia et consectetur maiores nisi rerum omnis aut ipsum exercitationem impedit enim labore nam autem vitae et pariatur.","visibility":0,"level_id":3,"creator_id":30,"created_at":"2022-02-18T16:52:42.000000Z","updated_at":"2022-02-18T16:52:42.000000Z","permissions":{"can_viewAny":true,"can_view":false,"can_update":false,"can_delete":false,"can_ask":true},"userCount":19,"questionsCount":50,"answersCount":50,"visibilityName":"Private"},{"id":30,"name":"eaque repudiandae","description":"Blanditiis nesciunt totam non et cum adipisci cumque sed vero officiis in qui voluptatum dignissimos laborum quam repellat et labore odit tenetur magni et perferendis natus.","visibility":0,"level_id":2,"creator_id":1,"created_at":"2022-02-18T16:52:42.000000Z","updated_at":"2022-02-18T16:52:42.000000Z","permissions":{"can_viewAny":true,"can_view":true,"can_update":true,"can_delete":true,"can_ask":true},"userCount":20,"questionsCount":50,"answersCount":50,"visibilityName":"Private"},{"id":31,"name":"omnis assumenda","description":"Magni voluptatem consequatur sint corporis ratione laudantium impedit dolor tempora repellendus expedita quod suscipit laborum itaque.","visibility":0,"level_id":3,"creator_id":30,"created_at":"2022-02-18T16:52:42.000000Z","updated_at":"2022-02-18T16:52:42.000000Z","permissions":{"can_viewAny":true,"can_view":false,"can_update":false,"can_delete":false,"can_ask":true},"userCount":21,"questionsCount":50,"answersCount":50,"visibilityName":"Private"},{"id":32,"name":"et incidunt","description":"Quos eum totam rerum alias rerum et sint aut veritatis qui aut magni natus at sunt consequatur quasi exercitationem maxime.","visibility":0,"level_id":1,"creator_id":17,"created_at":"2022-02-18T16:52:42.000000Z","updated_at":"2022-02-18T16:52:42.000000Z","permissions":{"can_viewAny":true,"can_view":false,"can_update":false,"can_delete":false,"can_ask":true},"userCount":20,"questionsCount":50,"answersCount":50,"visibilityName":"Private"},{"id":33,"name":"perspiciatis aut","description":"Quis quia nisi perferendis enim delectus dicta et explicabo ex labore explicabo ea vel.","visibility":0,"level_id":4,"creator_id":13,"created_at":"2022-02-18T16:52:42.000000Z","updated_at":"2022-02-18T16:52:42.000000Z","permissions":{"can_viewAny":true,"can_view":true,"can_update":false,"can_delete":false,"can_ask":true},"userCount":21,"questionsCount":50,"answersCount":50,"visibilityName":"Private"},{"id":34,"name":"temporibus expedita","description":"Autem magni voluptatibus ab quibusdam officiis est reprehenderit ab distinctio quos voluptates voluptatem et natus quaerat occaecati eveniet sunt enim est officia minima in deleniti porro consectetur.","visibility":0,"level_id":3,"creator_id":19,"created_at":"2022-02-18T16:52:42.000000Z","updated_at":"2022-02-18T16:52:42.000000Z","permissions":{"can_viewAny":true,"can_view":true,"can_update":false,"can_delete":false,"can_ask":true},"userCount":21,"questionsCount":50,"answersCount":50,"visibilityName":"Private"},{"id":35,"name":"quia voluptatibus","description":"Aut molestiae quia suscipit veritatis cumque sed ad repudiandae eos quos molestiae iure vel vitae officiis quos vero nam iste corporis eligendi perferendis distinctio optio tempora perferendis sit amet.","visibility":0,"level_id":4,"creator_id":14,"created_at":"2022-02-18T16:52:42.000000Z","updated_at":"2022-02-18T16:52:42.000000Z","permissions":{"can_viewAny":true,"can_view":false,"can_update":false,"can_delete":false,"can_ask":true},"userCount":19,"questionsCount":50,"answersCount":50,"visibilityName":"Private"},{"id":36,"name":"maxime at","description":"Nam eum aperiam optio blanditiis alias tenetur repellendus qui rerum et accusantium voluptas consequatur nesciunt necessitatibus sunt natus omnis minima reprehenderit.","visibility":0,"level_id":1,"creator_id":8,"created_at":"2022-02-18T16:52:42.000000Z","updated_at":"2022-02-18T16:52:42.000000Z","permissions":{"can_viewAny":true,"can_view":true,"can_update":false,"can_delete":false,"can_ask":true},"userCount":19,"questionsCount":50,"answersCount":50,"visibilityName":"Private"},{"id":37,"name":"neque numquam","description":"Repellat aliquam voluptas vitae magnam dignissimos aut libero voluptas ut voluptatem maiores et dolores.","visibility":0,"level_id":2,"creator_id":8,"created_at":"2022-02-18T16:52:42.000000Z","updated_at":"2022-02-18T16:52:42.000000Z","permissions":{"can_viewAny":true,"can_view":false,"can_update":false,"can_delete":false,"can_ask":true},"userCount":19,"questionsCount":50,"answersCount":50,"visibilityName":"Private"},{"id":38,"name":"ab suscipit","description":"Aut ipsa veniam excepturi tempore inventore in ex est provident blanditiis rerum est id et at sequi in officia.","visibility":0,"level_id":1,"creator_id":13,"created_at":"2022-02-18T16:52:42.000000Z","updated_at":"2022-02-18T16:52:42.000000Z","permissions":{"can_viewAny":true,"can_view":true,"can_update":false,"can_delete":false,"can_ask":true},"userCount":20,"questionsCount":50,"answersCount":50,"visibilityName":"Private"},{"id":39,"name":"occaecati perspiciatis","description":"Sapiente cumque eius sint est ut adipisci aliquam in in quia sed sit.","visibility":0,"level_id":3,"creator_id":31,"created_at":"2022-02-18T16:52:42.000000Z","updated_at":"2022-02-18T16:52:42.000000Z","permissions":{"can_viewAny":true,"can_view":false,"can_update":false,"can_delete":false,"can_ask":true},"userCount":20,"questionsCount":50,"answersCount":50,"visibilityName":"Private"},{"id":40,"name":"est hic","description":"Ex consequatur et corporis a ducimus reprehenderit unde reprehenderit necessitatibus laboriosam quia adipisci atque omnis enim iure sint totam sit accusantium quia natus non molestiae ut.","visibility":0,"level_id":4,"creator_id":22,"created_at":"2022-02-18T16:52:42.000000Z","updated_at":"2022-02-18T16:52:42.000000Z","permissions":{"can_viewAny":true,"can_view":true,"can_update":false,"can_delete":false,"can_ask":true},"userCount":19,"questionsCount":50,"answersCount":50,"visibilityName":"Private"},{"id":41,"name":"quaerat aspernatur","description":"Qui adipisci beatae odit est fuga quis harum et iusto blanditiis veritatis eos quam eaque omnis adipisci vel architecto esse dolor modi ut facere quas.","visibility":0,"level_id":4,"creator_id":8,"created_at":"2022-02-18T16:52:42.000000Z","updated_at":"2022-02-18T16:52:42.000000Z","permissions":{"can_viewAny":true,"can_view":false,"can_update":false,"can_delete":false,"can_ask":true},"userCount":19,"questionsCount":50,"answersCount":50,"visibilityName":"Private"},{"id":42,"name":"alias doloribus","description":"Ratione a quos tempore molestiae quaerat aliquam animi hic consequatur magni ut molestias sint modi neque nihil recusandae velit.","visibility":0,"level_id":2,"creator_id":28,"created_at":"2022-02-18T16:52:42.000000Z","updated_at":"2022-02-18T16:52:42.000000Z","permissions":{"can_viewAny":true,"can_view":true,"can_update":false,"can_delete":false,"can_ask":true},"userCount":19,"questionsCount":50,"answersCount":50,"visibilityName":"Private"},{"id":43,"name":"unde esse","description":"Cupiditate aut dolor est eos veritatis atque ex natus enim nihil fugit quasi quam nesciunt accusantium omnis nemo adipisci et magnam enim sunt ipsa esse ullam dolore.","visibility":0,"level_id":4,"creator_id":6,"created_at":"2022-02-18T16:52:42.000000Z","updated_at":"2022-02-18T16:52:42.000000Z","permissions":{"can_viewAny":true,"can_view":false,"can_update":false,"can_delete":false,"can_ask":true},"userCount":19,"questionsCount":50,"answersCount":50,"visibilityName":"Private"},{"id":44,"name":"dignissimos quas","description":"Quas voluptatem consectetur ipsum ex error debitis non ut quasi aut in et consequatur labore voluptas eos facilis minus repudiandae quibusdam et atque voluptatem voluptas aspernatur cum cumque sit.","visibility":0,"level_id":3,"creator_id":27,"created_at":"2022-02-18T16:52:42.000000Z","updated_at":"2022-02-18T16:52:42.000000Z","permissions":{"can_viewAny":true,"can_view":false,"can_update":false,"can_delete":false,"can_ask":true},"userCount":21,"questionsCount":50,"answersCount":50,"visibilityName":"Private"},{"id":45,"name":"voluptatem qui","description":"Ex autem odio architecto saepe consequatur quae aut quo beatae enim harum ad illum ad optio vitae id explicabo non rerum quia cupiditate dolorem dolorem aliquam sunt et dolores.","visibility":0,"level_id":1,"creator_id":20,"created_at":"2022-02-18T16:52:42.000000Z","updated_at":"2022-02-18T16:52:42.000000Z","permissions":{"can_viewAny":true,"can_view":true,"can_update":false,"can_delete":false,"can_ask":true},"userCount":20,"questionsCount":50,"answersCount":50,"visibilityName":"Private"},{"id":46,"name":"quam laboriosam","description":"Et labore et veritatis harum qui sit totam id quia nobis qui et qui ratione voluptas totam rem aut mollitia distinctio neque nostrum qui nostrum quia.","visibility":0,"level_id":3,"creator_id":15,"created_at":"2022-02-18T16:52:42.000000Z","updated_at":"2022-02-18T16:52:42.000000Z","permissions":{"can_viewAny":true,"can_view":true,"can_update":false,"can_delete":false,"can_ask":true},"userCount":19,"questionsCount":50,"answersCount":50,"visibilityName":"Private"},{"id":47,"name":"sit mollitia","description":"Perferendis sunt fugiat nesciunt voluptatem fuga sed hic sunt deleniti nostrum commodi earum recusandae alias dolorum aut facilis itaque sed porro eos deserunt non.","visibility":0,"level_id":1,"creator_id":8,"created_at":"2022-02-18T16:52:42.000000Z","updated_at":"2022-02-18T16:52:42.000000Z","permissions":{"can_viewAny":true,"can_view":false,"can_update":false,"can_delete":false,"can_ask":true},"userCount":19,"questionsCount":50,"answersCount":50,"visibilityName":"Private"},{"id":48,"name":"fuga sapiente","description":"Omnis aliquid velit sed sint aliquam repellat culpa consequatur quis ipsum nemo aperiam fuga veritatis sed iusto hic sed aut eligendi dolor libero libero.","visibility":0,"level_id":4,"creator_id":27,"created_at":"2022-02-18T16:52:42.000000Z","updated_at":"2022-02-18T16:52:42.000000Z","permissions":{"can_viewAny":true,"can_view":true,"can_update":false,"can_delete":false,"can_ask":true},"userCount":19,"questionsCount":50,"answersCount":50,"visibilityName":"Private"},{"id":49,"name":"nisi id","description":"Eos culpa ab at nam necessitatibus minus voluptatem voluptas facilis sed rerum consequatur neque.","visibility":0,"level_id":4,"creator_id":24,"created_at":"2022-02-18T16:52:42.000000Z","updated_at":"2022-02-18T16:52:42.000000Z","permissions":{"can_viewAny":true,"can_view":false,"can_update":false,"can_delete":false,"can_ask":true},"userCount":20,"questionsCount":50,"answersCount":50,"visibilityName":"Private"},{"id":50,"name":"voluptas voluptatibus","description":"Molestias odio quas dolores maiores enim qui illo dolore praesentium tenetur velit ad facilis ducimus nisi enim minus dolor quia placeat quod et quia voluptatem modi saepe corrupti.","visibility":0,"level_id":1,"creator_id":13,"created_at":"2022-02-18T16:52:42.000000Z","updated_at":"2022-02-18T16:52:42.000000Z","permissions":{"can_viewAny":true,"can_view":true,"can_update":false,"can_delete":false,"can_ask":true},"userCount":20,"questionsCount":50,"answersCount":50,"visibilityName":"Private"}],"first_page_url":"http:\/\/192.168.1.20:8000\/api\/room?page=1","from":1,"last_page":2,"last_page_url":"http:\/\/192.168.1.20:8000\/api\/room?page=2","links":[{"url":null,"label":"&laquo; Previous","active":false},{"url":"http:\/\/192.168.1.20:8000\/api\/room?page=1","label":"1","active":true},{"url":"http:\/\/192.168.1.20:8000\/api\/room?page=2","label":"2","active":false},{"url":"http:\/\/192.168.1.20:8000\/api\/room?page=2","label":"Next &raquo;","active":false}],"next_page_url":"http:\/\/192.168.1.20:8000\/api\/room?page=2","path":"http:\/\/192.168.1.20:8000\/api\/room","per_page":50,"prev_page_url":null,"to":50,"total":100}